05_analysis
…
Normalize Intensity across Samples

Technical variation of sample preparation and LC/MS runs introduce error in our data, leading to varying total intensities of theoretically identical samples. To compare protein intensities across samples, we normalize the individual protein intensities to the median of each sample. This way we account for unwanted technical variation.

For each observation (a replicate of a particular cell type) we wish to nomalize the intensity compared to the total intensity of all measured proteins of that cell type. This is why we group the data by sample (fx hsc_rep_1 is one group and clp_rep_2 is another group). We then normalize the data by dividing individual intensities by the median of the sample.

#Check that the grouping gives 21 median values
df_log_intensities |> 
  group_by(cell_type,replicate_n) |> 
  summarize(median(intensity, na.rm = TRUE))

`summarise()` has grouped output by 'cell_type'. You can override using the
`.groups` argument.

# A tibble: 21 × 3
# Groups:   cell_type [5]
   cell_type replicate_n `median(intensity, na.rm = TRUE)`
   <chr>           <dbl>                             <dbl>
 1 clp                 1                              12.2
 2 clp                 2                              10.5
 3 clp                 3                              10.4
 4 clp                 4                              10.6
 5 clp                 5                              11.0
 6 cmp                 1                              11.4
 7 cmp                 2                              11.4
 8 cmp                 3                              11.5
 9 cmp                 4                              11.4
10 gmp                 1                              11.5
# ℹ 11 more rows
…
`summarise()` has grouped output by 'protein_groups'. You can override using
the `.groups` argument.

# Showing 10 rows of the df_sample mean table
sample_n(df_sample_mean, 1)

# A tibble: 3,763 × 11
# Groups:   protein_groups [3,763]
   protein_groups     mean_clp mean_cmp mean_gmp mean_hsc mean_mep sd_clp sd_cmp
   <chr>                 <dbl>    <dbl>    <dbl>    <dbl>    <dbl>  <dbl>  <dbl>
 1 A1L314                0.609    0.334    0.350    0.325    0.394 0.268  0.0190
 2 A1L317                0.320    0.334    0.350    0.325    0.593 0.0656 0.0190
 3 A2A432;A2A432-2       0.319    0.334    0.350    0.325    0.805 0.0284 0.0190
 4 A2A8Z1;A2A8Z1-2       0.319    0.529    0.350    0.325    0.394 0.0284 0.237 
 5 A2AAJ9;A2AAJ9-2       0.319    0.625    0.350    0.325    0.394 0.0284 0.346 
 6 A2AB59;A2AB59-2       0.319    0.334    0.350    0.325    0.539 0.0284 0.0190
 7 A2ABU4                0.319    0.729    0.350    0.325    0.394 0.0284 0.266 
 8 A2ADY9                0.817    0.736    0.880    0.939    0.746 0.261  0.286 
 9 A2AGT5;A2AGT5-2;A…    0.935    0.334    1.05     1.06     0.868 0.330  0.0190
10 A2AIV8                0.319    0.334    0.959    0.325    0.394 0.0284 0.0190
# ℹ 3,753 more rows
# ℹ 3 more variables: sd_gmp <dbl>, sd_hsc <dbl>, sd_mep <dbl>
…
df_log_intensities |>  
    mutate(sample = str_c(cell_type,
                        replicate_n,
                        sep ="_"),.before = cell_type) |> 
  group_by(sample) |> 
  summarize(median(intensity, na.rm = TRUE))

# A tibble: 21 × 2
   sample `median(intensity, na.rm = TRUE)`
   <chr>                              <dbl>
 1 clp_1                               12.2
 2 clp_2                               10.5
 3 clp_3                               10.4
 4 clp_4                               10.6
 5 clp_5                               11.0
 6 cmp_1                               11.4
 7 cmp_2                               11.4
 8 cmp_3                               11.5
 9 cmp_4                               11.4
10 gmp_1                               11.5
# ℹ 11 more rows
…
df_norm_intensities |>
  mutate(sample = str_c(cell_type,
                      replicate_n,
                      sep ="_"),.before = cell_type) |> 
  group_by(sample) |> 
  summarize(median(intensity, na.rm = TRUE))

# A tibble: 21 × 2
   sample `median(intensity, na.rm = TRUE)`
   <chr>                              <dbl>
 1 clp_1                                  1
 2 clp_2                                  1
 3 clp_3                                  1
 4 clp_4                                  1
 5 clp_5                                  1
 6 cmp_1                                  1
 7 cmp_2                                  1
 8 cmp_3                                  1
 9 cmp_4                                  1
10 gmp_1                                  1
# ℹ 11 more rows
…
